edgar/edgar
common/level_exit
item/apple_tree
weapon/wood_axe
enemy/skull_door
weapon/phantasmal_shield
lift/lift_target
boss/azriel
item/health_potion
weapon/lightning_sword
item/flaming_arrow_potion
item/resurrection_amulet
item/bomb
weapon/basic_sword
weapon/bow
weapon/flaming_arrow
item/ice_spray
boss/azriel_grave
